Project 1
…
max_cases<-full_animal %>% summarize(max_cases= max(cases))
max_fatal<-full_animal %>% summarize(max_fatal= max(fatalities))

correlation<- full_animal%>%summarize(correlation=cor(cases,fatalities))

summary_covid<- data.frame(max_cases, max_fatal, correlation)
summary_covid

##   max_cases max_fatal correlation
## 1     30199       433   0.9952606

full_animal %>%group_by(year, month) %>%summarize(max_cases=max(cases))

## # A tibble: 22 x 3
## # Groups:   year [2]
##     year month max_cases
##    <dbl> <int>     <dbl>
##  1  2019     1         0
##  2  2019     2         0
##  3  2019     3         0
##  4  2019     4         0
##  5  2019     5         0
##  6  2019     6         0
##  7  2019     7         0
##  8  2019     8         0
##  9  2019     9         0
## 10  2019    10         0
## # … with 12 more rows

full_animal %>%group_by(year, month) %>%summarize(max_fatalities=max(fatalities))

## # A tibble: 22 x 3
## # Groups:   year [2]
##     year month max_fatalities
##    <dbl> <int>          <dbl>
##  1  2019     1              0
##  2  2019     2              0
##  3  2019     3              0
##  4  2019     4              0
##  5  2019     5              0
##  6  2019     6              0
##  7  2019     7              0
##  8  2019     8              0
##  9  2019     9              0
## 10  2019    10              0
## # … with 12 more rows
…
Looking at the summary statistics, it can be observed that in 2019 the shelter adoption numbers were overall higher each month compared to all of 2020 so far. The average age of animals and their outcomes summarized by mean of "Outcome.Type" reveal that animals who were euthanized, relocated, returned to owner, or "Rto-Adopt" had greater mean ages than those adopted or who died. The mean age of animals who had an outcome in 2019 and 2020 had a mean age of 23.93273 months with standard deviation of 33.62944 months. Max age was 276 months and minimum age was 0.033333 months. The max number of COVID cases in Travis County from March 4, 2020 to October 11, 2020 reached 30199 cases and had 433 fatalities. The correlation between the cases and the fatalities was about 0.9953, which is a strong relation. The correlation between the number of COVID cases in a month and the number of adoptions in the same month was 0.2406, which is a weak relation.

A categorical variable called "in_quarantine" was created to better label which animals were adopted after the COVID cases started appearing in Texas (March 4, 2020). When the mean age of animals that had an outcome in the shelter before quarantine were compared to that of those after, the average age was very similar at about 23.93700 months compared to 23.91125 months. However, when this data was further subsetted into whether or not the animal was adopted, the animals that were not adopted had a greater mean age than those that were for both before and after the quarantine. The mean age of animals adopted after quarantine was slightly higher than those from before, with an average 19.72727 months age for animals adopted before the quarantine compared to 20.97531 months for after.

4. Visualizing

#Heatmap
#Must take off observations from before March 2020, as we are interested in the correlations for the quarantine period. Dataset has been grouped to specifically adoption outcomes for this heatmap.
cormat<- adjust_animal %>% ungroup() %>% filter(month>=3) %>% select_if(is.numeric) %>% select(-year) %>% cor(use="pair")
tidycor<- cormat %>% as.data.frame %>% rownames_to_column("var1") %>% pivot_longer(-1,names_to="var2",values_to="correlation") 

tidycor

## # A tibble: 64 x 3
##    var1  var2                 correlation
##    <chr> <chr>                      <dbl>
##  1 month month                     1     
##  2 month day                       0.0762
##  3 month age                      -0.0130
##  4 month fatalities                0.953 
##  5 month cases                     0.953 
##  6 month days_covid                0.992 
##  7 month number_adopted            0.113 
##  8 month total_number_adopted      0.255 
##  9 day   month                     0.0762
## 10 day   day                       1     
## # … with 54 more rows
…
